{
  "expenses":[
    {
      "id": "Rp1ye_y",
      "operation_id":"1",
      "product_id":"2",
      "reference_no":"123",
      "quantity":12,
      "unit_cost":15,
      "amount":21,
      "status":1,
      "operation":{
        "id":"1",
        "operation_no":"123"
      },
      "product":{
        "id":"2",
        "name":"Prod1"
      }
    },
    {
      "id": "Rp1ye",
      "operation_id":"12",
      "product_id":"22",
      "reference_no":"123",
      "quantity":12,
      "unit_cost":15,
      "amount":21,
      "status":1,
      "operation":{
        "id":"12",
        "operation_no":"123"
      },
      "product":{
        "id":"22",
        "name":"Prod1"
      }
    }
  ],
  "lookups": [
    {
      "id": "Rp1ye_y",
      "lookup_type_id": "12",
      "name": "Sample2",
      "code": "S2",
      "local_name": "Sample 2",
      "order": 2
    },
    {
      "lookup_type_id": "12",
      "lookup_type": {
        "id": "12",
        "name": "Type1"
      },
      "name": "Sample2",
      "code": "S2",
      "local_name": "Sample 2",
      "order": 2,
      "id": "Rp1ye_y",
      "status": 1
    },
    {
      "lookup_type_id": "12",
      "lookup_type": {
        "id": "12",
        "name": "Type1"
      },
      "name": "Test",
      "code": "tt",
      "local_name": "tt",
      "order": 2,
      "id": "sefMNsM",
      "status": 1
    },
    {
      "name": "RT",
      "code": "ee",
      "local_name": "eee",
      "order": 1,
      "status": 1,
      "id": "qaHwoFl",
      "lookup_type_id": "2",
      "lookup_type": {
        "id": "2",
        "name": "Type2"
      }
    }
  ],
  "lookup-types": [
    {
      "id": "12",
      "code": "T2",
      "name": "Type2",
      "local_name": "Type2",
      "order": 1,
      "status": 1
    },
    {
      "name": "TEST123",
      "code": "12",
      "local_name": "",
      "order": 0,
      "status": 1,
      "id": "2"
    },
    {
      "name": "Letter Grades",
      "code": "LTG",
      "local_name": "",
      "order": 0,
      "status": 1,
      "id": "n5R6jvR"
    },
    {
      "name": "Type1",
      "code": "C1",
      "local_name": "",
      "order": 1,
      "status": 1,
      "id": "sqNNBVE"
    }
  ],
  "schools": [
    {
      "name": "TEST",
      "code": "11",
      "telephone": "0116",
      "pobox": "1235",
      "email": "emaail",
      "website": "website",
      "id": "1",
      "status": 1
    },
    {
      "name": "HillSide",
      "code": "HSS",
      "telephone": "0115",
      "pobox": "1290",
      "email": "kal@example.com",
      "website": "website.com",
      "status": 1,
      "id": "2"
    },
    {
      "id": "3",
      "name": "TEST2",
      "code": "TT2",
      "telephone": "0119",
      "pobox": "1278",
      "email": "kal@example.com",
      "website": "website2.com",
      "status": 1
    }
  ],
  "branches": [
    {
      "school_id": "2",
      "name": "HS1",
      "code": "HS1",
      "telephone": "0118",
      "id": "2",
      "school": {
        "id": "2",
        "name": "HillSide"
      }
    }
  ],
  "users": [
    {
      "id": "1234",
      "user_name": "test123",
      "email": "test123",
      "first_name": "test123",
      "last_name": "test123",
      "password": "123",
      "api_token": "12345"
    }
  ],
  "subjects": [
    {
      "id": 1,
      "name": "English",
      "code": "ENG",
      "local_name": "ENG",
      "order": 1,
      "status": 1
    }
  ],
  "academic-years": [],
  "grades": [],
  "terms": [
    {
      "id": "T01",
      "name": "Term 1",
      "code": "1",
      "order": "1"
    },
    {
      "id": "T02",
      "name": "Term 2",
      "code": "2",
      "order": 2
    }
  ],
  "sections": [],
  "assessment-types": [],
  "teacher-allocations": [
    {
      "id": "124",
      "full_name": "Abebe Haile",
      "staff_id": "145",
      "academic_year_id": "12",
      "academic_year_name": "2014",
      "subject_id": "245",
      "subject_name": "English",
      "section_id": "345",
      "weekly_periods": 2,
      "section": {
        "id": "345",
        "grade_name": "Grade 9",
        "name": "Section A"
      },
      "assessment_types": [
        {
          "id": "445",
          "name": "Test 1",
          "code": "Test 1",
          "weight": 10
        },
        {
          "id": "446",
          "name": "Class Work",
          "code": "CW",
          "weight": 10
        },
        {
          "id": "447",
          "name": "Home Work",
          "code": "HW",
          "weight": 10
        },
        {
          "id": "448",
          "name": "Mid Exam",
          "code": "MiE",
          "weight": 30
        },
        {
          "id": "449",
          "name": "Final Exam",
          "code": "Final",
          "weight": 40
        }
      ]
    },
    {
      "id": "124",
      "full_name": "Abebe Haile",
      "staff_id": "145",
      "academic_year_id": "12",
      "academic_year_name": "2014",
      "subject_id": "245",
      "section_id": "346",
      "subject_name": "English",
      "weekly_periods": 2,
      "section": {
        "id": "346",
        "grade_name": "Grade 9",
        "name": "Section B"
      },
      "assessment_types": [
        {
          "id": "445",
          "name": "Test 1",
          "code": "T1",
          "weight": 10
        },
        {
          "id": "446",
          "name": "Class Work",
          "code": "CW",
          "weight": 10
        },
        {
          "id": "447",
          "name": "Home Work",
          "code": "HW",
          "weight": 10
        },
        {
          "id": "448",
          "name": "Mid Exam",
          "code": "MiE",
          "weight": 30
        },
        {
          "id": "449",
          "name": "Final Exam",
          "code": "Final",
          "weight": 40
        }
      ]
    }
  ],
  "assessments": [
    {
      "id": "132",
      "teacher_allocation_id": "124",
      "student_id": "235",
      "student_name": "Abebe Kebede",
      "student_id_no": "HSS/235/14",
      "assessment_type_id": "445",
      "result": 9,
      "remark": ""
    }
  ],
  "results": [],
  "students": [
    {
      "id": "235",
      "school_id": "123",
      "student_name": "Abebe Kebede",
      "student_id_no": "HSS/235/14"
    },
    {
      "id": "236",
      "school_id": "123",
      "student_name": "Zeri Haile",
      "student_id_no": "HSS/236/14"
    }
  ],
  "invoice-detail":[
    {
      "id"  :  "af78883f-6a28-4c8a-896d-b6cfcfd7d7e6",
      "consignee_name"  :  "Consignee Name Here",
      "reference_no"  :  "123",
      "description"  :  "123",
      "bol"  :  "123",
      "operation_no"  :  "123",
      "reg_no"  :  "123",
      "freight_forwarder"  :  "freight_forwarder here",
      "shipper"  :  "Shipper name here",
      "invoice_no"  :  "123",
      "invoice_date"  :  "123",
      "declaration_no"  :  "123",
      "status"  :  "123",
      "invoice_items"  :  [
        {
          "description" : "Deliver order",
          "reference_no" : "2029025",
          "amount" : 13780.00
        },
        {
          "description" : "Demurrage Charge",
          "reference_no" : "2029026A",
          "amount" : 663256.00

        }
      ]
    }
  ]
}